{
    "audio": null,
    "bootloader": "systemd-bootctl",
    "filesystem": "ext4",
    "harddrive": {
        "model": "MSH-64",
        "path": "/dev/sda",
        "size": "59.6G"
    },
    "hostname": "nomada-mini",
    "kernels": [
        "linux"
    ],
    "keyboard-language": "us",
    "mirror-region": {
        "Worldwide": {
            "https://mirror.rackspace.com/archlinux/$repo/os/$arch": true
        }
    },
    "nic": {
        "nic": "enp3s0"
    },
    "ntp": true,
    "packages": [
        "git",
        "nano",
        "openssh"
    ],
    "profile": null,
    "script": "guided",
    "superusers": {
        "nomada": {
            "!password": "changeme"
        }
    },
    "sys-encoding": "utf-8",
    "sys-language": "en_US",
    "timezone": "Europe/Madrid",
    "users": {}
}
